60.42598693681374,141.42874774882986,11.0
60.83726351512706,141.51980175165698,11.0
60.65424883831891,141.0724564072077,11.0
60.469467499013994,140.63068275763527,11.0
61.24846433504122,141.61346048231476,11.0
61.06580935192328,141.1591630291431,11.0
60.881358197600996,140.71059313749964,11.0
60.69514478853544,140.26769712804423,11.0
60.50720250459953,139.83041995828995,11.0
60.317564186276556,139.39870535499554,11.0
61.65958609894196,141.70983680775691,11.0
61.47730169044621,141.24837166503823,11.0
61.29319062968376,140.79279649503218,11.0
61.10728783618878,140.34305575857516,11.0
60.91962767209938,139.89909245378777,11.0
60.73024393902256,139.46084825851656,11.0
60.539169875914254,139.02826366648515,11.0
60.346438157909844,138.60127811722344,11.0
61.888722860050905,141.34019174590992,11.0
61.70496225106665,140.87739260664313,11.0
61.51937945585776,140.42059528376237,11.0
61.33200986227696,139.9697407281103,11.0
61.14288827541695,139.52476847283418,11.0
60.95204891520116,139.08561677997488,11.0
60.759525415000894,138.65222278030632,11.0
60.56535082121063,138.2245226065199,11.0
60.36955759371542,137.8024515198668,11.0
62.30006968956681,141.43473915103672,11.0
62.116670367653725,140.96448710125313,11.0
61.931417382407446,140.50041147020193,11.0
61.7443471934115,140.0424510691709,11.0
61.55549565410497,139.59054318560604,11.0
61.36489800904974,139.14462374110428,11.0
61.17258889230735,138.7046274420771,11.0
60.978602326851416,138.27048792318357,11.0
60.78297172494332,137.84213788365565,11.0
60.58572988940227,137.41950921665634,11.0
60.386909015702884,137.00253313182688,11.0
62.711338817206226,141.53213668785244,11.0
62.52831212427556,141.05419189411484,11.0
62.343399216019876,140.58260575653108,11.0
62.15663767252617,140.11731484997264,11.0
61.96806444312412,139.65825410967562,11.0
61.777715843291304,139.2053570017086,11.0
61.58562755275961,138.758555685472,11.0
61.3918346147417,138.31778116833485,11.0
61.19637143619916,137.88296345253954,11.0
60.9992717890769,137.45403167452707,11.0
60.800568812431074,137.0309142368531,11.0
60.600295015381036,136.61353893288117,11.0
60.39848228081877,136.2018330644521,11.0
63.122526676073036,141.63251461513846,11.0
62.93988449250446,141.14662565964667,11.0
62.75532241205798,140.66728567823912,11.0
62.56887918705956,140.19442890773482,11.0
62.38059291315845,139.7279878188422,11.0
62.19050102582703,139.2678933002908,11.0
61.998640298162385,138.81407483429035,11.0
61.80504683990097,138.3664606634298,11.0
61.609756097560975,137.92497794915636,11.0
61.412802855629785,137.48955292199918,11.0
61.21422123871727,137.06011102372312,11.0
61.014044714599144,136.6365770416167,11.0
60.81230609807767,136.2188752351313,11.0
63.53362947833374,141.73601121411934,11.0
63.35138425735016,141.24191434741505,11.0
63.16718427000252,140.75456533110219,11.0
62.981069495779266,140.27389595735175,11.0
62.79307923018237,139.7998361139047,11.0
62.60325208077293,139.33231398318853,11.0
62.41162596462911,138.87125623198563,11.0
62.21823810711972,138.41658819177135,11.0
62.02312504189973,137.96823402987172,11.0
61.82632261203775,137.52611691161957,11.0
61.6278659721887,137.0901591537107,11.0
61.4277895917289,136.6602823689828,11.0
61.226127258774206,136.23640760285616,11.0
63.944643197905094,141.84277341263095,11.0
63.76280800271418,141.34019174590992,11.0
63.578981921361944,140.84456587738686,11.0
63.393206218856164,140.3558250428552,11.0
63.20552144742832,139.87389642220478,11.0
63.015967442069595,139.39870535499554,11.0
62.82458331760142,138.9301755457255,11.0
62.63140746717434,138.46822925891715,11.0
62.43647756209289,138.01278750418334,11.0
62.2398305528678,137.563770211465,11.0
62.04150267140078,137.12109639666147,11.0
61.84152943421106,136.68468431789628,11.0
61.63994564661715,136.25445162268153,11.0
64.35556355149423,141.9529574681739,11.0
64.17415209546641,141.44160009933503,11.0
63.99071231644227,140.93741609948154,11.0
63.80528682700748,140.4403320310055,11.0
63.61791749660496,139.95027223429173,11.0
63.42864544649911,139.46715906138928,11.0
63.23751104640907,138.9909130984298,11.0
63.04455391269482,138.52145337692224,11.0
62.84981290798406,138.05869757409582,11.0
62.653326142131334,137.60256220249983,11.0
62.455130974406124,137.15296278910046,11.0
62.25526401680999,136.70981404414152,11.0
62.05376113842811,136.2730300200567,11.0
64.76638597780614,142.06672971640108,11.0
64.58541266798937,141.54629078329404,11.0
64.40237220985027,141.0332530062007,11.0
64.21730862960557,140.52754015165618,11.0
64.03026517828317,140.02907358178544,11.0
63.84128432604371,139.53777250790665,11.0
63.65040775832013,139.0535542318314,11.0
63.457676373647686,138.57633437499734,11.0
63.2631302830612,138.10602709561644,11.0
63.06680881094086,137.64254529406472,11.0
62.8687504971927,137.1858008067756,11.0
62.66899310065463,136.7357045889284,11.0
62.467573603624,136.29216688624993,11.0
64.99658559901634,141.6544250460066,11.0
64.81395814458625,141.13222249767932,11.0
64.6292687616359,140.61758059012683,11.0
64.44256215135661,140.11041756103123,11.0
64.25388219951307,139.6106493186606,11.0
64.06327197202499,139.11818970398878,11.0
63.87077371239144,138.6329507394882,11.0
63.67642884082256,138.154842864792,11.0
63.480277954947994,137.68377515946898,11.0
63.2823608319771,137.2196555531979,11.0
63.08271643219102,136.7623910236605,11.0
62.88138290365229,136.31188778250413,11.0
65.04116416937228,140.71059313749964,11.0
64.85480592147125,140.19442890773482,11.0
64.6664370633572,139.6858998395027,11.0
64.47610211049022,139.1849161251184,11.0
64.28384471825701,138.69138598645128,11.0
64.08970768079551,138.2052159310135,11.0
63.89373293153824,137.72631099390628,11.0
63.69596154533699,137.25457496593503,11.0
63.49643374203683,136.78991060824606,11.0
63.29518889137367,136.33221985386965,11.0
65.07894678157112,139.7636416907262,11.0
64.88889649311027,139.2538364361192,11.0
64.69688810159884,138.75172907052598,11.0
64.50296584416915,138.25722194066697,11.0
64.30717305675542,137.7702157972002,11.0
64.10955217616468,137.29061004263855,11.0
63.91014474372696,136.81830296445185,11.0
63.70899141038649,136.35319195377969,11.0
65.10990248725545,138.81407483429035,11.0
64.9162023089961,138.31094151461144,11.0
64.72059760192485,137.81555668421123,11.0
64.52313223342169,137.32781508904117,11.0
64.32384913233798,136.8476102659946,11.0
64.12279029428636,136.37483478056942,11.0
65.13400578994016,137.86240522611175,11.0
64.93670119367117,137.3662479914558,11.0
64.73754658297746,136.87787744728536,11.0
64.53658536585365,136.39718102729637,11.0
65.15123674912259,136.9091524329964,11.0
64.95037643616045,136.42026554639904,11.0
